{
  "project_info": {
    "project_number": "407297307732",
    "firebase_url": "https://raspberry-recognition.firebaseio.com",
    "project_id": "raspberry-recognition",
    "storage_bucket": "raspberry-recognition.appspot.com"
  },
  "client": [
    {
      "client_info": {
        "mobilesdk_app_id": "1:407297307732:android:834ac46382608103",
        "android_client_info": {
          "package_name": "com.example.hugon.raspberryconnection"
        }
      },
      "oauth_client": [
        {
          "client_id": "407297307732-3tdrk056pdtbt5n2ppg6gma1rcmiddeu.apps.googleusercontent.com",
          "client_type": 1,
          "android_info": {
            "package_name": "com.example.hugon.raspberryconnection",
            "certificate_hash": "221be509fbfd30fc76ec3c2e177bb609c20f8f89"
          }
        },
        {
          "client_id": "407297307732-69bujbqom49hefcoe3m8vpamhmbnn4tn.apps.googleusercontent.com",
          "client_type": 3
        }
      ],
      "api_key": [
        {
          "current_key": "AIzaSyDnaHOF028jnTVneNRNdqbvfSQofGr6-Cg"
        }
      ],
      "services": {
        "analytics_service": {
          "status": 1
        },
        "appinvite_service": {
          "status": 2,
          "other_platform_oauth_client": [
            {
              "client_id": "407297307732-69bujbqom49hefcoe3m8vpamhmbnn4tn.apps.googleusercontent.com",
              "client_type": 3
            }
          ]
        },
        "ads_service": {
          "status": 2
        }
      }
    }
  ],
  "configuration_version": "1"
}